<?xml version="1.0" encoding="UTF-8" standalone="no"?>
<svg
   width="60"
   height="60"
   version="1.1"
   id="svg4"
   xmlns="http://www.w3.org/2000/svg"
   xmlns:svg="http://www.w3.org/2000/svg">
  <defs
     id="defs8" />
  <path
     class="shapebg-fill"
     d="M 5,30 30,55 V 40 H 55 V 20 H 30 V 5 Z"
     id="path125" />
</svg>
