@startuml
title PuzzleStack Structure
skin rose

class PuzzleStack {
- GList *stack
- GList *current
- IpuzPuzzle *copy = <copy of crossword #2>
}
together {
object "GList" as L1
L1 : puzzle = <crossword #3>
L1 : type = GRID
L1 : data_obj = <GObject #3>

object "GList" as L2
L2 : puzzle = <crossword #2>
L2 : type = GRID
L2 : data_obj = <GObject #2>

object "GList" as L3
L3 : puzzle = <crossword #1>
L3 : type = PUZZLE
L3 : data_obj = <GObject #1>

circle "Beginning of History" as C
}

object "GObject #2 (user data)" as GObject2 {
 user_data
 "edit-window" → GRID
 "play-xword" → <PlayState (dehydrated)>
 "..." → ...
}

PuzzleStack::stack ->L1
PuzzleStack::current ->L2
L2::data_obj -> GObject2
L1<-->L2
L2<-->L3
L3..>C
@enduml